Data Manipulation
…
# make a blank data frame 
a_data <- data.frame(treat=character(250), A=numeric(250)) 

# populate the data frame
a_data$treat <- c(rep("Control",50), rep("-0.5MPa",50), rep("-1.0MPa",50), rep("-1.5MPa",50), rep("Recover",50))
a_data$A <- c(treatA, treatB, treatC, treatD, treatE)
tibble::tibble(a_data)

## # A tibble: 250 x 2
##    treat       A
##    <chr>   <dbl>
##  1 Control  16.2
##  2 Control  15.8
##  3 Control  13.9
##  4 Control  17.8
##  5 Control  15.0
##  6 Control  11.4
##  7 Control  15.4
##  8 Control  17.6
##  9 Control  17.2
## 10 Control  18.1
## #  with 240 more rows

2.3 Check your data

tibble::tibble(a_data)

## # A tibble: 250 x 2
##    treat       A
##    <chr>   <dbl>
##  1 Control  16.2
##  2 Control  15.8
##  3 Control  13.9
##  4 Control  17.8
##  5 Control  15.0
##  6 Control  11.4
##  7 Control  15.4
##  8 Control  17.6
##  9 Control  17.2
## 10 Control  18.1
## #  with 240 more rows
…
