…
    # make a blank data frame 
    a_data <- data.frame(treat=character(250), A=numeric(250)) 

    # populate the data frame
    a_data$treat <- c(rep("Control",50), rep("-0.5MPa",50), rep("-1.0MPa",50), rep("-1.5MPa",50), rep("Recover",50))
    a_data$A <- c(treatA, treatB, treatC, treatD, treatE)
    tibble::tibble(a_data)

    ## # A tibble: 250 x 2
    ##    treat       A
    ##    <chr>   <dbl>
    ##  1 Control  13.9
    ##  2 Control  14.5
    ##  3 Control  18.1
    ##  4 Control  15.1
    ##  5 Control  15.3
    ##  6 Control  18.4
    ##  7 Control  15.9
    ##  8 Control  12.5
    ##  9 Control  13.6
    ## 10 Control  14.1
    ## # … with 240 more rows

Check your data
---------------

    tibble::tibble(a_data)

    ## # A tibble: 250 x 2
    ##    treat       A
    ##    <chr>   <dbl>
    ##  1 Control  13.9
    ##  2 Control  14.5
    ##  3 Control  18.1
    ##  4 Control  15.1
    ##  5 Control  15.3
    ##  6 Control  18.4
    ##  7 Control  15.9
    ##  8 Control  12.5
    ##  9 Control  13.6
    ## 10 Control  14.1
    ## # … with 240 more rows
…
Two-sample *t*-test for **independent** samples
-----------------------------------------------

    tibble(a_data)

    ## # A tibble: 250 x 2
    ##    treat       A
    ##    <chr>   <dbl>
    ##  1 Control  13.9
    ##  2 Control  14.5
    ##  3 Control  18.1
    ##  4 Control  15.1
    ##  5 Control  15.3
    ##  6 Control  18.4
    ##  7 Control  15.9
    ##  8 Control  12.5
    ##  9 Control  13.6
    ## 10 Control  14.1
    ## # … with 240 more rows
…
ANOVA test hypotheses:

-   Null hypothesis: the means of the different groups are the same
-   Alternative hypothesis: At least one sample mean is not equal to the
    others.

### Import and check your data into R

    tibble(a_data)

    ## # A tibble: 250 x 2
    ##    treat       A
    ##    <chr>   <dbl>
    ##  1 Control  13.9
    ##  2 Control  14.5
    ##  3 Control  18.1
    ##  4 Control  15.1
    ##  5 Control  15.3
    ##  6 Control  18.4
    ##  7 Control  15.9
    ##  8 Control  12.5
    ##  9 Control  13.6
    ## 10 Control  14.1
    ## # … with 240 more rows
…
> Two-way ANOVA, like all ANOVA tests, assumes that the observations
> within each cell are normally distributed and have equal variances.
> We’ll show you how to check these assumptions after fitting ANOVA.

### Import and check your data into R

    my_data <- ToothGrowth
    tibble(my_data)

    ## # A tibble: 60 x 3
    ##      len supp   dose
    ##    <dbl> <fct> <dbl>
    ##  1   4.2 VC      0.5
    ##  2  11.5 VC      0.5
    ##  3   7.3 VC      0.5
    ##  4   5.8 VC      0.5
    ##  5   6.4 VC      0.5
    ##  6  10   VC      0.5
    ##  7  11.2 VC      0.5
    ##  8  11.2 VC      0.5
    ##  9   5.2 VC      0.5
    ## 10   7   VC      0.5
    ## # … with 50 more rows
…
