Data Manipulation
…
# make a blank data frame 
a_data <- data.frame(treat=character(250), A=numeric(250)) 

# populate the data frame
a_data$treat <- c(rep("Control",50), rep("-0.5MPa",50), rep("-1.0MPa",50), rep("-1.5MPa",50), rep("Recover",50))
a_data$A <- c(treatA, treatB, treatC, treatD, treatE)
tibble::tibble(a_data)

## # A tibble: 250 x 2
##    treat       A
##    <chr>   <dbl>
##  1 Control  16.0
##  2 Control  12.1
##  3 Control  15.9
##  4 Control  10.7
##  5 Control  13.6
##  6 Control  16.2
##  7 Control  13.1
##  8 Control  10.5
##  9 Control  16.8
## 10 Control  14.1
## #  with 240 more rows

2.3 Check your data

tibble::tibble(a_data)

## # A tibble: 250 x 2
##    treat       A
##    <chr>   <dbl>
##  1 Control  16.0
##  2 Control  12.1
##  3 Control  15.9
##  4 Control  10.7
##  5 Control  13.6
##  6 Control  16.2
##  7 Control  13.1
##  8 Control  10.5
##  9 Control  16.8
## 10 Control  14.1
## #  with 240 more rows
…
4.3 Two-sample \(t\)-test for independent samples

tibble(a_data)

## # A tibble: 250 x 2
##    treat       A
##    <chr>   <dbl>
##  1 Control  16.0
##  2 Control  12.1
##  3 Control  15.9
##  4 Control  10.7
##  5 Control  13.6
##  6 Control  16.2
##  7 Control  13.1
##  8 Control  10.5
##  9 Control  16.8
## 10 Control  14.1
## #  with 240 more rows
…
5.2 One-way ANOVA test

The one-way analysis of variance (ANOVA), also known as one-factor ANOVA, is an extension of independent two-samples t-test for comparing means in a situation where there are more than two groups. In one-way ANOVA, the data is organized into several groups base on one single grouping variable (also called factor variable). This tutorial describes the basic principle of the one-way ANOVA test and provides practical anova test examples in R software.

ANOVA test hypotheses:

Null hypothesis: the means of the different groups are the same

Alternative hypothesis: At least one sample mean is not equal to the others.

5.2.1 Import and check your data into R

tibble(a_data)

## # A tibble: 250 x 2
##    treat       A
##    <chr>   <dbl>
##  1 Control  16.0
##  2 Control  12.1
##  3 Control  15.9
##  4 Control  10.7
##  5 Control  13.6
##  6 Control  16.2
##  7 Control  13.1
##  8 Control  10.5
##  9 Control  16.8
## 10 Control  14.1
## #  with 240 more rows
…
There is no interaction between factors A and B

The alternative hypothesis for cases 1 and 2 is: the means are not equal.

The alternative hypothesis for case 3 is: there is an interaction between A and B.

Two-way ANOVA, like all ANOVA tests, assumes that the observations within each cell are normally distributed and have equal variances. Well show you how to check these assumptions after fitting ANOVA.

5.3.2 Import and check your data into R

my_data <- ToothGrowth
tibble(my_data)

## # A tibble: 60 x 3
##      len supp   dose
##    <dbl> <fct> <dbl>
##  1   4.2 VC      0.5
##  2  11.5 VC      0.5
##  3   7.3 VC      0.5
##  4   5.8 VC      0.5
##  5   6.4 VC      0.5
##  6  10   VC      0.5
##  7  11.2 VC      0.5
##  8  11.2 VC      0.5
##  9   5.2 VC      0.5
## 10   7   VC      0.5
## #  with 50 more rows
…
